{
  "type": "service_account",
  "project_id": "steadfast-leaf-258903",
  "private_key_id": "6773be5115a4e00de1a75d09933a00931d7848b8",
  "private_key": "-----BEGIN PRIVATE KEY-----\nMIIEvQIBADANBgkqhkiG9w0BAQEFAASCBKcwggSjAgEAAoIBAQCT/RRh/WIxuUAE\nIDZZz8m48RJHPouf3tJqHDJvUS9oJO52p7KHwJ+BjxCehiZtuQgDWL4Wm1vTBGUM\nXmYRf9373s4i7G7tWQJ6goA8p2GvRZlE5+v/LxqanqILZS4iSJApLfxBHJGGVnXQ\niiNv3/dkKQc6pL0NukYqVzxEivAlBVwjWqbvpYu0TqGTuFF5Mffc09E5EjLUe9WE\n8S5C/mspzuYNEs3Wko4D3yd0ZBYafGfRG6VHDA4U3j0v0+jpdyhDA+Qkb4/VPnpa\nNtgdi29PKN3ZDDhQ6JhkI5Yv3dcIBp8km112268AQM23ZBybX8lHNTmeq16HMfDd\nV0RuYSezAgMBAAECggEAFf7+4ZW026kqP7K+AVlmJUwHqHk+bZPD+KuaP3t0rWkX\n3KEOYykZTDuEf9t2qMZgz4aIMnoDCvlTP6RkTWORDhfO0dgMoNCjEqyE/P7wAQo6\nPsiuBi7tKGA9u63dTpE0hDpmjRL++lWti0KNA9rpPYTvoyLLStgOB8sRlSqFiSrp\nzZ6MsJYz9brJPmPzitOnSR/nC1pOsw7RwJQGiYi2lhaIHjYIu66wFNjMs6TCDXz1\n03mpqtJ2k+OPXLi4ENaDbzY7JrbdH7HEhAsBl0sWnA/vZb+WTPKjK0baMC4QoiRu\nPRHcnajhzWK2Taqd+0w9Oe45GSsavQwEYnpNyeLRmQKBgQDPaT1WDrDWcAjKEBLC\n2lVcAtxzW72VqF70FMSaaVwsCB0t8atMVzdd9McdWK8k22jdBqCypo+iMMI/z+JA\nmUtesvvAVb2oW2x+HF8mJzN+9Ml7K3VyNfiKJU2Cb45vJWU1UZv5p6Ey8esBNp7r\nQxbCvGnlf26ZqIDwLAMdylkYlQKBgQC2qC6MRPuhve7GUnG1Bb7UcIX2DJmm4vXH\nrDR8KBMyoJL93NoyN1YK/TnmniAs7F7oJ5sqA4jQvzvjTAVmXD6zyH3Qrt5gFucV\nSsJJOdc3/Xt+Yt+YpuJIEK/TmWh7gvDgSMjx0QdbRudm5FmObug4Vu5BPgG4A8Dq\n3eH0VaWFJwKBgHLJfYaZDsk+q76YcqmgB8mqU7MMPLoMurA+pigG01oTC4MX0oOn\naR74jxHwuM2fGEPqnRkCEU/jyD1koYS60fmQ+L8TNKluH3cT4JzO6TMD6lXeUVtp\n/ykFSAY+Ewf0HDUL+1SJry7wr+y1+/Gb6YbQm5LFmcI0fVduJDNifziZAoGBALOm\nUrHvnzaDonc421FaJ0i2q2tHFVDI5UfQHYcHu2oN+MTrFUhSmLQSP4KNf8Pvb6ES\nY1A9TbFShUqXmLAGhj05MlWvyFPl8r5EWza+RulwzKeQA68WZHTQxL5vog3oyZUu\nwUTlfEDQSgQvD85BUvEmvws4O2SLfJEETpqMKlH9AoGACRdVFV/7n0mTUqP70EmD\ne94taF9kIOtkirozAwIcmrnk4BKCZyhbOYZtK1iE8JBBQwa0UcwuqVecacypbcbl\nMaUqeVL2IlOy2dGCYNMRLJUhkDbWucEEEUgxy+lHyOZwPA84xv3nAUIpvN/fgJyQ\ntIqPVO283zGk/j9WQ7sN9R0=\n-----END PRIVATE KEY-----\n",
  "client_email": "multilingo@steadfast-leaf-258903.iam.gserviceaccount.com",
  "client_id": "106751327370444104954",
  "auth_uri": "https://accounts.google.com/o/oauth2/auth",
  "token_uri": "https://oauth2.googleapis.com/token",
  "auth_provider_x509_cert_url": "https://www.googleapis.com/oauth2/v1/certs",
  "client_x509_cert_url": "https://www.googleapis.com/robot/v1/metadata/x509/multilingo%40steadfast-leaf-258903.iam.gserviceaccount.com"
}